[
    {
        "name": "id",
        "dbType": "increments",
        "htmlType": "",
        "validations": "",
        "primary": true,
        "searchable": false,
        "fillable": false,
        "inForm": false,
        "inIndex": false,
        "inView": false
    },
    {
        "type": "relation",
        "relation": "1tm,Grade,user_id"
    },
    {
        "type": "relation",
        "relation": "1tm,Space,user_id"
    },
    {
        "name": "name",
        "dbType": "string",
        "htmlType": "text",
        "validations": "required",
        "primary": false,
        "searchable": true,
        "fillable": true,
        "inForm": true,
        "inIndex": true,
        "inView": true
    },
    {
        "name": "email",
        "dbType": "string:unique",
        "htmlType": "email",
        "validations": "required",
        "primary": false,
        "searchable": true,
        "fillable": true,
        "inForm": true,
        "inIndex": true,
        "inView": true
    },
    {
        "name": "password",
        "dbType": "string",
        "htmlType": "password",
        "validations": "required",
        "searchable": true,
        "fillable": true,
        "primary": false,
        "inForm": true,
        "inIndex": true,
        "inView": true
    },
    {
        "name": "is_active",
        "dbType": "boolean",
        "htmlType": "radio,Yes:1,No:0",
        "validations": "required",
        "searchable": true,
        "fillable": true,
        "primary": false,
        "inForm": true,
        "inIndex": true,
        "inView": true
    },
    {
        "name": "created_at",
        "dbType": "timestamp",
        "htmlType": "",
        "validations": "",
        "primary": false,
        "searchable": false,
        "fillable": false,
        "inForm": false,
        "inIndex": false,
        "inView": true
    },
    {
        "name": "updated_at",
        "dbType": "timestamp",
        "htmlType": "",
        "validations": "",
        "primary": false,
        "searchable": false,
        "fillable": false,
        "inForm": false,
        "inIndex": false,
        "inView": true
    }
]