[
    {
        "name": "id",
        "dbType": "increments",
        "htmlType": "",
        "validations": "",
        "primary": true,
        "searchable": false,
        "fillable": false,
        "inForm": false,
        "inIndex": false,
        "inView": false
    },
    {
        "name": "wifi_type_id",
        "dbType": "integer:unsigned:foreign,wifi_types,id",
        "htmlType": "select,WifiType:id",
        "relation": "mt1,WifiType,wifi_type_id,id",
        "validations": "required",
        "primary": false,
        "searchable": true,
        "fillable": true,
        "inForm": true,
        "inIndex": true,
        "inView": true
    },
    {
        "name": "user_id",
        "dbType": "integer:unsigned:foreign,users,id",
        "htmlType": "select,User:id",
        "relation": "mt1,User,user_id,id",
        "validations": "required",
        "primary": false,
        "searchable": true,
        "fillable": true,
        "inForm": true,
        "inIndex": true,
        "inView": true
    },
    {
        "name": "name",
        "dbType": "string",
        "htmlType": "text",
        "validations": "required",
        "primary": false,
        "searchable": true,
        "fillable": true,
        "inForm": true,
        "inIndex": true,
        "inView": true
    },
    {
        "name": "wifi_name",
        "dbType": "string",
        "htmlType": "text",
        "validations": "required",
        "primary": false,
        "searchable": true,
        "fillable": true,
        "inForm": true,
        "inIndex": true,
        "inView": true
    },
    {
        "name": "wifi_password",
        "dbType": "string:nullable",
        "htmlType": "text",
        "validations": "",
        "primary": false,
        "searchable": true,
        "fillable": true,
        "inForm": true,
        "inIndex": true,
        "inView": true
    },
    {
        "name": "original_wifi_speed",
        "dbType": "float",
        "htmlType": "text",
        "validations": "required",
        "primary": false,
        "searchable": false,
        "fillable": true,
        "inForm": false,
        "inIndex": false,
        "inView": false
    },
    {
        "name": "wifi_speed",
        "dbType": "float",
        "htmlType": "text",
        "validations": "required",
        "primary": false,
        "searchable": true,
        "fillable": true,
        "inForm": true,
        "inIndex": true,
        "inView": true
    },
    {
        "name": "sockets_number",
        "dbType": "integer",
        "htmlType": "text",
        "validations": "required",
        "primary": false,
        "searchable": true,
        "fillable": true,
        "inForm": true,
        "inIndex": true,
        "inView": true
    },
    {
        "name": "zipcode",
        "dbType": "string",
        "htmlType": "text",
        "validations": "required",
        "searchable": true,
        "fillable": true,
        "primary": false,
        "inForm": true,
        "inIndex": true,
        "inView": true
    },
    {
        "name": "address",
        "dbType": "string",
        "htmlType": "text",
        "validations": "required",
        "searchable": true,
        "fillable": true,
        "primary": false,
        "inForm": true,
        "inIndex": true,
        "inView": true
    },
    {
        "name": "number",
        "dbType": "string",
        "htmlType": "text",
        "validations": "required",
        "searchable": true,
        "fillable": true,
        "primary": false,
        "inForm": true,
        "inIndex": true,
        "inView": true
    },
    {
        "name": "neighborhood",
        "dbType": "string",
        "htmlType": "text",
        "validations": "required",
        "searchable": true,
        "fillable": true,
        "primary": false,
        "inForm": true,
        "inIndex": true,
        "inView": true
    },
    {
        "name": "city",
        "dbType": "string",
        "htmlType": "text",
        "validations": "required",
        "searchable": true,
        "fillable": true,
        "primary": false,
        "inForm": true,
        "inIndex": true,
        "inView": true
    },
    {
        "name": "state",
        "dbType": "string",
        "htmlType": "text",
        "validations": "required",
        "searchable": true,
        "fillable": true,
        "primary": false,
        "inForm": true,
        "inIndex": true,
        "inView": true
    },
    {
        "name": "complement",
        "dbType": "longText:nullable",
        "htmlType": "textarea",
        "validations": "",
        "searchable": true,
        "fillable": true,
        "primary": false,
        "inForm": true,
        "inIndex": true,
        "inView": true
    },
    {
        "name": "reference",
        "dbType": "longText:nullable",
        "htmlType": "textarea",
        "validations": "",
        "searchable": true,
        "fillable": true,
        "primary": false,
        "inForm": true,
        "inIndex": true,
        "inView": true
    },
    {
        "name": "latitude",
        "dbType": "decimal(10,8):nullable",
        "htmlType": "text",
        "validations": "",
        "searchable": true,
        "fillable": true,
        "primary": false,
        "inForm": true,
        "inIndex": true,
        "inView": true
    },
    {
        "name": "longitude",
        "dbType": "decimal(11,8):nullable",
        "htmlType": "text",
        "validations": "",
        "searchable": true,
        "fillable": true,
        "primary": false,
        "inForm": true,
        "inIndex": true,
        "inView": true
    },
    {
        "name": "created_at",
        "dbType": "timestamp",
        "htmlType": "",
        "validations": "",
        "primary": false,
        "searchable": false,
        "fillable": false,
        "inForm": false,
        "inIndex": false,
        "inView": true
    },
    {
        "name": "updated_at",
        "dbType": "timestamp",
        "htmlType": "",
        "validations": "",
        "primary": false,
        "searchable": false,
        "fillable": false,
        "inForm": false,
        "inIndex": false,
        "inView": true
    }
]